Expression on Xenium base panel features in 13384 tumors
…
# Annotations for genes not expressed in scRNAseq
multitissue_cancer %>% filter(!Gene %in% unlist(exp_list))

# A tibble: 216 × 3
   Gene   Ensembl_ID      Annotation                                            
   <chr>  <chr>           <chr>                                                 
 1 ABCC11 ENSG00000121270 Breast - breast glandular cells                       
 2 ACE2   ENSG00000130234 General - Smooth muscle cells,Kidney - Proximal tubul…
 3 ACKR1  ENSG00000213088 General - Endothelial cells                           
 4 ADGRE1 ENSG00000174837 Liver - kupffer cells                                 
 5 ADH1C  ENSG00000248144 Colon - Undifferentiated cells,Liver - Hepatocytes,Pa…
 6 ADH4   ENSG00000198099 Liver - Hepatocytes                                   
 7 ADIPOQ ENSG00000181092 Breast - adipocytes                                   
 8 AGER   ENSG00000204305 Lung - Alveolar cells type 1                          
 9 AGR3   ENSG00000173467 Breast - Breast glandular cells,Colon - Distal entero…
10 AHSP   ENSG00000169877 Liver - Erythroid cells                               
# ℹ 206 more rows
…
